{
    "configText": "https://desktop-5jhl1sc:6443/arcgis/rest/services/PWS_AssetRegistry_UT83/MapServer",
    "configText2": 1,
    "services": [
        {
            "url": "https://desktop-5jhl1sc:6443/arcgis/rest/services/PWS_AssetRegistry_UT83/MapServer",
            "layers": []
        },
        {
            "url": "https://localhost:6443/arcgis/rest/services/SWC_AssetRegistry_UT83/MapServer",
            "layers": []
        },
        {
            "url": "https://localhost:6443/arcgis/rest/services/TRN_AssetRegistry_UT83/MapServer",
            "layers": []
        },
        {
            "url": "https://localhost:6443/arcgis/rest/services/WWC_AssetRegistry_UT83/MapServer",
            "layers": []
        }
    ]
}